data_emergentsea • esteem.overview
…
data_emergentsea_y <- data_emergentsea |> 
  group_by(PARAMETRE_LIBELLE, ESTUARY, family, matrix, UNITE) |> 
  summarise(RESULTAT = mean(RESULTAT), .groups = "drop") 

Get unit

Same values for bivalve and POCIS in µg.kg-1, p.h. => delete POCIS
rows POCIS in ng.g-1 => delete POCIS rows bivalve in ng.l-1 =>
delete bivalve rows

data_emergentsea_y |> 
  select(ESTUARY, PARAMETRE_LIBELLE, matrix, UNITE, RESULTAT)

## # A tibble: 250 × 5
##    ESTUARY PARAMETRE_LIBELLE  matrix UNITE         RESULTAT
##    <fct>   <chr>              <chr>  <chr>            <dbl>
##  1 NA      2,4-D              POCIS  ng.g-1         12.9   
##  2 NA      2,4-D              POCIS  ng.l-1          4.16  
##  3 NA      2-hydroxy atrazine POCIS  ng.g-1         49.2   
##  4 NA      2-hydroxy atrazine POCIS  ng.l-1          4.07  
##  5 Gironde 3,4-DCA            BIOTE  µg.kg-1, p.h.   0     
##  6 Loire   3,4-DCA            BIOTE  µg.kg-1, p.h.   0.41  
##  7 Seine   3,4-DCA            BIOTE  µg.kg-1, p.h.   0.065 
##  8 NA      3,4-DCA            BIOTE  µg.kg-1, p.h.   0.0525
##  9 Gironde AMPA               POCIS  ng.l-1          4.2   
## 10 Loire   AMPA               POCIS  ng.l-1          4.73  
## # ℹ 240 more rows
…
ggsave(plot = ggplot_percent_france_POCIS, 
       filename = "../inst/results/data_contam/emergentsea/ggplot_emergentsea_POCIS.jpg")

## Saving 7.29 x 4.51 in image

Graphs for BIOTE

# Names
percent_france_BIOTE |> 
  distinct(family, PARAMETRE_LIBELLE) |> 
  arrange(family, PARAMETRE_LIBELLE)

## # A tibble: 29 × 2
##    family      PARAMETRE_LIBELLE
##    <chr>       <chr>            
##  1 antifouling Cuivre pyrithione
##  2 antifouling DCOIT            
##  3 antifouling Dichlofluanide   
##  4 antifouling Irgarol          
##  5 antifouling Médétomidine     
##  6 antifouling Tralopyril       
##  7 antifouling Zinc pyrithione  
##  8 fungicides  Azoxystrobine    
##  9 fungicides  Boscalid         
## 10 fungicides  Chlorothalonil   
## # ℹ 19 more rows
…
means_BIOTE |> 
  left_join(PNEC) |> 
  select(-mean_france) |> 
  mutate(mean_estuary = mean_estuary > PNEC) |> 
  pivot_wider(names_from = ESTUARY, values_from = mean_estuary) |> 
  arrange(family, PARAMETRE_LIBELLE)

## Joining with `by = join_by(PARAMETRE_LIBELLE)`

## # A tibble: 34 × 8
##    PARAMETRE_LIBELLE family      matrix UNITE           PNEC Gironde Loire Seine
##    <chr>             <chr>       <chr>  <chr>          <dbl> <lgl>   <lgl> <lgl>
##  1 Cuivre pyrithione antifouling BIOTE  µg.kg-1, p.h.  NA    NA      NA    NA   
##  2 DCOIT             antifouling BIOTE  µg.kg-1, p.h.   0.07 FALSE   FALSE FALSE
##  3 Dichlofluanide    antifouling BIOTE  µg.kg-1, p.h.   0.03 FALSE   FALSE TRUE 
##  4 Irgarol           antifouling BIOTE  µg.kg-1, p.h.   0.01 TRUE    FALSE FALSE
##  5 Médétomidine      antifouling BIOTE  µg.kg-1, p.h.   0    FALSE   FALSE FALSE
##  6 Tralopyril        antifouling BIOTE  µg.kg-1, p.h.   0.68 FALSE   FALSE FALSE
##  7 Zinc pyrithione   antifouling BIOTE  µg.kg-1, p.h.  NA    NA      NA    NA   
##  8 Zinèbe            antifouling BIOTE  µg.kg-1, p.h.  NA    NA      NA    NA   
##  9 Azoxystrobine     fungicides  BIOTE  µg.kg-1, p.h.   0.06 FALSE   FALSE TRUE 
## 10 Boscalid          fungicides  BIOTE  µg.kg-1, p.h. 233.   FALSE   FALSE FALSE
## # ℹ 24 more rows
…
medians_BIOTE <- left_join(mean_estuaries_BIOTE, median_france_BIOTE) |>  
  arrange(family, PARAMETRE_LIBELLE) |> 
  mutate(over_median = case_when(
    mean_estuary > median_france ~ TRUE,
    TRUE ~ FALSE
  ))

## Joining with `by = join_by(PARAMETRE_LIBELLE, family, matrix, UNITE)`

medians_BIOTE|> 
  filter(over_median == TRUE)

## # A tibble: 33 × 8
##    ESTUARY PARAMETRE_LIBELLE family      matrix UNITE mean_estuary median_france
##    <fct>   <chr>             <chr>       <chr>  <chr>        <dbl>         <dbl>
##  1 Seine   Dichlofluanide    antifouling BIOTE  µg.k…       0.515       0.185   
##  2 Gironde Irgarol           antifouling BIOTE  µg.k…       0.2         0.000789
##  3 Seine   Azoxystrobine     fungicides  BIOTE  µg.k…       0.0845      0.0163  
##  4 Gironde Boscalid          fungicides  BIOTE  µg.k…       0.0875      0.0528  
##  5 Loire   Boscalid          fungicides  BIOTE  µg.k…       0.127       0.0528  
##  6 Loire   Epoxiconazole     fungicides  BIOTE  µg.k…       0.004       0.00232 
##  7 Seine   Epoxiconazole     fungicides  BIOTE  µg.k…       0.0075      0.00232 
##  8 Gironde Propiconazole     fungicides  BIOTE  µg.k…       0.188       0.124   
##  9 Loire   Propiconazole     fungicides  BIOTE  µg.k…       0.277       0.124   
## 10 Gironde Thirame           fungicides  BIOTE  µg.k…       0.79        0.138   
## # ℹ 23 more rows
## # ℹ 1 more variable: over_median <lgl>
…
