data_contamination_dioxine_like • esteem.overview
…
# # Checking => should be 10% (TEF=0.1)
# data_dioxine_like_dw |> filter(YEAR %in% c(2015, 2023), PARAMETRE_LIBELLE == "1,2,3,4,7,8-hexachlorodibenzo-p-dioxine")
# data_dioxine_like_TEQ |> filter(YEAR %in% c(2015, 2023), PARAMETRE_LIBELLE == "1,2,3,4,7,8-hexachlorodibenzo-p-dioxine")

Get the monitoring periods

data_dioxine_like_TEQ |> 
  group_by(ESTUARY, PARAMETRE_LIBELLE) |> 
  summarise(min_year = min(YEAR),
            max_year = max(YEAR))

## `summarise()` has grouped output by 'ESTUARY'. You can override using the
## `.groups` argument.

## # A tibble: 84 × 4
## # Groups:   ESTUARY [3]
##    ESTUARY PARAMETRE_LIBELLE                       min_year max_year
##    <chr>   <chr>                                      <dbl>    <dbl>
##  1 Gironde 1,2,3,4,6,7,8-heptachlorodibenzofuran       2008     2024
##  2 Gironde 1,2,3,4,7,8,9-heptachlorodibenzofuran       2008     2024
##  3 Gironde 1,2,3,4,7,8-hexachlorodibenzo-p-dioxine     2008     2024
##  4 Gironde 1,2,3,4,7,8-hexachlorodibenzofuran          2008     2024
##  5 Gironde 1,2,3,6,7,8-hexachlorodibenzo-p-dioxine     2008     2024
##  6 Gironde 1,2,3,6,7,8-hexachlorodibenzofuran          2008     2024
##  7 Gironde 1,2,3,7,8,9-hexachlorodibenzo-p-dioxine     2008     2024
##  8 Gironde 1,2,3,7,8,9-hexachlorodibenzofuran          2019     2024
##  9 Gironde 1,2,3,7,8-pentachlorodibenzo-p-dioxine      2008     2024
## 10 Gironde 1,2,3,7,8-pentachlorodibenzofuran           2008     2024
## # ℹ 74 more rows
…
