data_physico_chimie • esteem.overview
…
# ggsave(plot = ggplot_data_summarized, filename =  "../inst/results/data_physico_chemistry/ggplot_yearly_summarized_physiochem_parameters.jpg", 
#        width = 10, height = 25, units = "cm")

Start and end of measurments

data_summarized |> 
  group_by(ESTUARY, PARAMETRE_LIBELLE, PROGRAMME) |> 
  summarise(min_year = min(YEAR),
            max_year = max(YEAR)) |> 
  arrange(PARAMETRE_LIBELLE)

## `summarise()` has grouped output by 'ESTUARY', 'PARAMETRE_LIBELLE'. You can
## override using the `.groups` argument.

## # A tibble: 137 × 5
## # Groups:   ESTUARY, PARAMETRE_LIBELLE [45]
##    ESTUARY PARAMETRE_LIBELLE PROGRAMME  min_year max_year
##    <fct>   <chr>             <chr>         <dbl>    <dbl>
##  1 Gironde Ammonium          REPHY          2007     2024
##  2 Gironde Ammonium          REPOMO         1997     2007
##  3 Gironde Ammonium          RNOHYD         1974     2006
##  4 Loire   Ammonium          REPHY          2009     2024
##  5 Loire   Ammonium          REPOMO         1997     2016
##  6 Loire   Ammonium          RESLOC_44      1992     2012
##  7 Loire   Ammonium          RNOHYD         1975     2007
##  8 Seine   Ammonium          REPHY          2008     2011
##  9 Seine   Ammonium          REPHY;RHLN     2010     2024
## 10 Seine   Ammonium          REPOMO         2000     2009
## # ℹ 127 more rows
…
