data_sediment • esteem.overview
…
    PARAMETRE_LIBELLE == "Fraction de 250 à 500 µm" ~ 375,
    PARAMETRE_LIBELLE == "Fraction de 315 à 400 µm" ~ 357,
    PARAMETRE_LIBELLE == "Fraction de 400 à 500 µm" ~ 450,
    PARAMETRE_LIBELLE == "Fraction de 500 à 630 µm" ~ 565,
    PARAMETRE_LIBELLE == "Fraction de 630 à 800 µm" ~ 715,
    PARAMETRE_LIBELLE == "Fraction de 800 µm à 1 mm" ~ 900,
    PARAMETRE_LIBELLE == "Fraction de 1 mm à 1,25 mm" ~ 1125,
    PARAMETRE_LIBELLE == "Fraction de 1,25 à 1,6 mm" ~ 1425,
    PARAMETRE_LIBELLE == "Fraction de 1,6 à 2 mm" ~ 1800,
    PARAMETRE_LIBELLE == "Fraction de 2 à 2,5 mm" ~ 2250,
    PARAMETRE_LIBELLE == "Fraction de 2,5 à 3,15 mm" ~ 2825,
    PARAMETRE_LIBELLE == "Fraction de 2 à 4 mm" ~ 3000
  ))
data_size_resume
#> # A tibble: 123 × 6
#>    ESTUARY tidal       YEAR PARAMETRE_LIBELLE        median_res mid_class
#>    <chr>   <chr>      <dbl> <chr>                         <dbl>     <dbl>
#>  1 Gironde intertidal  2007 Fraction < 63 µm              88.6         63
#>  2 Gironde intertidal  2007 Fraction de 63 à 125 µm       11.1         94
#>  3 Gironde intertidal  2008 Fraction < 63 µm              88.6         63
#>  4 Gironde intertidal  2008 Fraction de 63 à 125 µm        7.24        94
#>  5 Gironde intertidal  2012 Fraction < 63 µm              87.5         63
#>  6 Gironde intertidal  2012 Fraction de 63 à 125 µm        9.02        94
#>  7 Gironde intertidal  2012 Fraction de 125 à 250 µm       2.24       187
#>  8 Gironde intertidal  2016 Fraction < 63 µm              95.5         63
#>  9 Gironde intertidal  2017 Fraction < 63 µm              94.5         63
#> 10 Gironde intertidal  2020 Fraction < 63 µm              98.3         63
#> # ℹ 113 more rows
…
    PARAMETRE_LIBELLE == "Fraction de 160 à 200 µm" ~ 180,
    PARAMETRE_LIBELLE == "Fraction de 200 à 250 µm" ~ 225,
    PARAMETRE_LIBELLE == "Fraction de 250 à 315 µm" ~ 282,
    PARAMETRE_LIBELLE == "Fraction de 315 à 400 µm" ~ 357,
    PARAMETRE_LIBELLE == "Fraction de 400 à 500 µm" ~ 450,
    PARAMETRE_LIBELLE == "Fraction de 500 à 630 µm" ~ 565,
    PARAMETRE_LIBELLE == "Fraction de 630 à 800 µm" ~ 715,
    PARAMETRE_LIBELLE == "Fraction de 800 µm à 1 mm" ~ 900,
    PARAMETRE_LIBELLE == "Fraction de 1 mm à 1,25 mm" ~ 1125,
    PARAMETRE_LIBELLE == "Fraction de 1,25 à 1,6 mm" ~ 1425,
    PARAMETRE_LIBELLE == "Fraction de 1,6 à 2 mm" ~ 1800,
    PARAMETRE_LIBELLE == "Fraction de 2 à 4 mm" ~ 3000
  ))
data_size_resume
#> # A tibble: 31 × 5
#>    ESTUARY tidal      PARAMETRE_LIBELLE        median_res mid_class
#>    <chr>   <chr>      <chr>                         <dbl>     <dbl>
#>  1 Gironde intertidal Fraction < 63 µm              93.7         63
#>  2 Gironde intertidal Fraction de 63 à 125 µm        8.10        94
#>  3 Gironde subtidal   Fraction < 63 µm              83.6         63
#>  4 Gironde subtidal   Fraction de 63 à 125 µm        6.39        94
#>  5 Gironde subtidal   Fraction de 125 à 250 µm       3.26       187
#>  6 Gironde subtidal   Fraction de 200 à 250 µm       2.24       225
#>  7 Gironde subtidal   Fraction de 160 à 200 µm       2.13       180
#>  8 Loire   intertidal Fraction < 63 µm              72.5         63
#>  9 Loire   intertidal Fraction de 80 à 100 µm        2.15        90
#> 10 Loire   subtidal   Fraction < 63 µm              42.2         63
#> # ℹ 21 more rows
…
