data_contamination_PCBi • esteem.overview
…
## # A tibble: 5 × 2
##   ESTUARY espece                                    
##   <chr>   <chr>                                     
## 1 Gironde Crassostrea gigas (huître creuse)         
## 2 Loire   Mytilus edulis (moule commune)            
## 3 Loire   Crassostrea gigas (huître creuse)         
## 4 Loire   Mytilus edulis + galloprovincialis (moule)
## 5 Seine   Mytilus edulis (moule commune)

data_PCBi_lw |> 
  filter(ESTUARY == "Loire") |> 
  distinct(ESTUARY, YEAR, espece)

## # A tibble: 31 × 3
##    ESTUARY  YEAR espece                        
##    <chr>   <dbl> <chr>                         
##  1 Loire    1992 Mytilus edulis (moule commune)
##  2 Loire    1993 Mytilus edulis (moule commune)
##  3 Loire    1994 Mytilus edulis (moule commune)
##  4 Loire    1995 Mytilus edulis (moule commune)
##  5 Loire    1996 Mytilus edulis (moule commune)
##  6 Loire    1997 Mytilus edulis (moule commune)
##  7 Loire    1999 Mytilus edulis (moule commune)
##  8 Loire    2000 Mytilus edulis (moule commune)
##  9 Loire    2001 Mytilus edulis (moule commune)
## 10 Loire    2002 Mytilus edulis (moule commune)
## # ℹ 21 more rows
…
