data_contamination_metals • esteem.overview
…
## # A tibble: 6 × 2
##   ESTUARY espece                                      
##   <chr>   <chr>                                       
## 1 Gironde Crassostrea gigas (huître creuse)           
## 2 Loire   Mytilus edulis (moule commune)              
## 3 Loire   Ruditapes philippinarum (palourde japonaise)
## 4 Loire   Crassostrea gigas (huître creuse)           
## 5 Loire   Mytilus edulis + galloprovincialis (moule)  
## 6 Seine   Mytilus edulis (moule commune)

data_metals |> 
  filter(ESTUARY == "Loire") |> 
  count(YEAR, espece)

## # A tibble: 56 × 3
##     YEAR espece                             n
##    <dbl> <chr>                          <int>
##  1  1979 Mytilus edulis (moule commune)     4
##  2  1980 Mytilus edulis (moule commune)     4
##  3  1981 Mytilus edulis (moule commune)     4
##  4  1982 Mytilus edulis (moule commune)     4
##  5  1983 Mytilus edulis (moule commune)     4
##  6  1984 Mytilus edulis (moule commune)     4
##  7  1985 Mytilus edulis (moule commune)     4
##  8  1986 Mytilus edulis (moule commune)     4
##  9  1987 Mytilus edulis (moule commune)     4
## 10  1988 Mytilus edulis (moule commune)     4
## # ℹ 46 more rows
…
