data_contamination_PAH • esteem.overview
…
Seine : only M. edulis

Loire :

1994-2021: M. edulis

2022-2024: M. edulis + M.galloprovincialis

2018, 2021, 2024: Crassostrea gigas

data_PAH_dw |> 
  distinct(ESTUARY, espece)

## # A tibble: 615 × 4
## # Groups:   ESTUARY, YEAR, PARAMETRE_LIBELLE [604]
##     YEAR PARAMETRE_LIBELLE ESTUARY espece                           
##    <dbl> <chr>             <chr>   <chr>                            
##  1  1995 Anthracene        Gironde Crassostrea gigas (huître creuse)
##  2  1995 Benzo-anthra.     Gironde Crassostrea gigas (huître creuse)
##  3  1995 Benzo-pyr.        Gironde Crassostrea gigas (huître creuse)
##  4  1995 Benzo-peryl.      Gironde Crassostrea gigas (huître creuse)
##  5  1995 Fluoranthene      Gironde Crassostrea gigas (huître creuse)
##  6  1995 Naphtalene        Gironde Crassostrea gigas (huître creuse)
##  7  1995 Pyrene            Gironde Crassostrea gigas (huître creuse)
##  8  1998 Anthracene        Gironde Crassostrea gigas (huître creuse)
##  9  1998 Benzo-anthra.     Gironde Crassostrea gigas (huître creuse)
## 10  1998 Benzo-pyr.        Gironde Crassostrea gigas (huître creuse)
## # ℹ 605 more rows

data_PAH_dw |> 
  filter(ESTUARY == "Loire") |> 
  distinct(ESTUARY, YEAR, espece)

## # A tibble: 194 × 4
## # Groups:   ESTUARY, YEAR, PARAMETRE_LIBELLE [183]
##    PARAMETRE_LIBELLE ESTUARY  YEAR espece                        
##    <chr>             <chr>   <dbl> <chr>                         
##  1 Anthracene        Loire    1994 Mytilus edulis (moule commune)
##  2 Benzo-anthra.     Loire    1994 Mytilus edulis (moule commune)
##  3 Benzo-pyr.        Loire    1994 Mytilus edulis (moule commune)
##  4 Benzo-peryl.      Loire    1994 Mytilus edulis (moule commune)
##  5 Fluoranthene      Loire    1994 Mytilus edulis (moule commune)
##  6 Naphtalene        Loire    1994 Mytilus edulis (moule commune)
##  7 Phenanthrene      Loire    1994 Mytilus edulis (moule commune)
##  8 Pyrene            Loire    1994 Mytilus edulis (moule commune)
##  9 Anthracene        Loire    1995 Mytilus edulis (moule commune)
## 10 Benzo-anthra.     Loire    1995 Mytilus edulis (moule commune)
## # ℹ 184 more rows
…
