data_benthos • esteem.overview
…
#>  1 Gironde intertidal Arthropoda Crustacea  Multicrustac… Coroph…           11.4
#>  2 Gironde intertidal Mollusca   Bivalvia   Autobranchia  Scrobi…           11.3
#>  3 Gironde intertidal Mollusca   Gastropoda Caenogastrop… Pering…           48.1
#>  4 Gironde subtidal   Annelida   Polychaeta Sedentaria    Hetero…           41.6
#>  5 Gironde subtidal   Arthropoda Crustacea  Multicrustac… Mesopo…           20.8
#>  6 Loire   intertidal Annelida   Polychaeta Sedentaria    Hetero…           36.2
#>  7 Loire   intertidal Mollusca   Bivalvia   Autobranchia  Scrobi…           16.2
#>  8 Loire   subtidal   Annelida   Polychaeta Sedentaria    Boccar…           69.7
#>  9 Seine   intertidal Mollusca   Bivalvia   Autobranchia  Cerast…           24.9
#> 10 Seine   intertidal Mollusca   Bivalvia   Autobranchia  Macoma…           20.9
#> 11 Seine   subtidal   Annelida   Polychaeta Errantia      Microp…           28.3
#> 12 Seine   subtidal   Arthropoda Crustacea  Multicrustac… Hausto…           18.5
#> 13 Seine   subtidal   Arthropoda Crustacea  Multicrustac… Bathyp…           13.4

#> # A tibble: 28 × 7
#>    ESTUARY tidal      phylum     class      order         species abundance_prop
#>    <chr>   <chr>      <chr>      <chr>      <chr>         <chr>            <dbl>
#>  1 Gironde intertidal Annelida   Polychaeta Sedentaria    Hetero…           7.28
#>  2 Gironde intertidal Arthropoda Crustacea  Multicrustac… Coroph…          11.4 
#>  3 Gironde intertidal Mollusca   Bivalvia   Autobranchia  Scrobi…          11.3 
#>  4 Gironde intertidal Mollusca   Bivalvia   Autobranchia  Macoma…           5.90
#>  5 Gironde intertidal Mollusca   Gastropoda Caenogastrop… Pering…          48.1 
#>  6 Gironde subtidal   Annelida   Polychaeta Sedentaria    Hetero…          41.6 
#>  7 Gironde subtidal   Arthropoda Crustacea  Multicrustac… Mesopo…          20.8 
#>  8 Loire   intertidal Annelida   Polychaeta Sedentaria    Hetero…          36.2 
#>  9 Loire   intertidal Annelida   Polychaeta Sedentaria    Tharyx            5.61
#> 10 Loire   intertidal Arthropoda Crustacea  Multicrustac… Amphib…           8.36
#> # ℹ 18 more rows
…
Abundance/Density

Number of individual per m2 at a given LIEU_MNEMONIQUE &
DATE

One line per species: nb of individuals

#> `summarise()` has grouped output by 'ESTUARY', 'LIEU_MNEMONIQUE', 'DATE',
#> 'sampler_type', 'sampler_surface', 'tidal', 'nb_samples_lieu_mnemonique_date'.
#> You can override using the `.groups` argument.
#> # A tibble: 930 × 10
#>    ESTUARY LIEU_MNEMONIQUE DATE                sampler_type      sampler_surface
#>    <chr>   <chr>           <dttm>              <chr>                       <dbl>
#>  1 Gironde 085-P-066       2020-09-03 00:00:00 Carottier PVC di…           0.028
#>  2 Gironde 085-P-066       2020-09-03 00:00:00 Carottier PVC di…           0.028
#>  3 Gironde 085-P-066       2020-09-03 00:00:00 Carottier PVC di…           0.028
#>  4 Gironde 085-P-066       2020-09-03 00:00:00 Carottier PVC di…           0.028
#>  5 Gironde 085-P-066       2020-09-03 00:00:00 Carottier PVC di…           0.028
#>  6 Gironde 085-P-066       2020-09-03 00:00:00 Carottier PVC di…           0.028
#>  7 Gironde 085-P-066       2023-09-13 00:00:00 Carottier PVC di…           0.028
#>  8 Gironde 085-P-066       2023-09-13 00:00:00 Carottier PVC di…           0.028
#>  9 Gironde 085-P-066       2023-09-13 00:00:00 Carottier PVC di…           0.028
#> 10 Gironde 085-P-066       2023-09-13 00:00:00 Carottier PVC di…           0.028
#> # ℹ 920 more rows
#> # ℹ 5 more variables: tidal <chr>, nb_samples_lieu_mnemonique_date <int>,
#> #   species <chr>, nb_ind_species_lieu_mnemonique_date <dbl>,
#> #   nb_ind_species_per_m2 <dbl>
…
AZTI Marine Biotic Index (AMBI)

Ecological groups of sensitivity to anthropic disturbance

#> Joining with `by = join_by(TAXON, GROUP)`
#> `summarise()` has grouped output by 'ESTUARY'. You can override using the
#> `.groups` argument.
#> # A tibble: 45 × 1
#>    species                
#>    <chr>                  
#>  1 Amphibalanus improvisus
#>  2 Amphipoda              
#>  3 Annelida               
#>  4 Apohyale prevostii     
#>  5 Assiminea grayana      
#>  6 Balanus crenatus       
#>  7 Bivalvia               
#>  8 Brachyura              
#>  9 Caridea                
#> 10 Chirona                
#> # ℹ 35 more rows
…
